<?xml version="1.0" encoding="utf-8"?>
<!-- Generator: Adobe Illustrator 24.2.1, SVG Export Plug-In . SVG Version: 6.00 Build 0)  -->
<svg version="1.1" id="rosette-green" xmlns="http://www.w3.org/2000/svg" xmlns:xlink="http://www.w3.org/1999/xlink" x="0px"
	 y="0px" viewBox="0 0 217 215" style="enable-background:new 0 0 217 215;" xml:space="preserve">
<style type="text/css">
	.st0{fill:#AAFF00;}
</style>
<g>
	<path class="st0" d="M99,6.9c5.5-4.6,13.5-4.6,19.1,0l3.7,3.1c3.8,3.1,8.8,4.2,13.5,2.9l4.6-1.3c6.9-1.9,14.2,1.3,17.4,7.8l2.1,4.3
		c2.2,4.4,6.4,7.4,11.2,8.1l4.7,0.7c7.1,1.1,12.4,7,12.8,14.2l0.2,4.8c0.2,4.9,2.8,9.4,6.9,12l4,2.6c6.1,3.9,8.5,11.5,5.9,18.1
		l-1.8,4.5c-1.8,4.6-1.3,9.7,1.4,13.8l2.6,4c4,6,3.1,13.9-2,19l-3.4,3.4c-3.5,3.4-5.1,8.3-4.3,13.2l0.8,4.7c1.2,7.1-2.8,14-9.5,16.5
		l-4.5,1.7c-4.6,1.7-8,5.6-9.3,10.3l-1.2,4.6c-1.8,6.9-8.3,11.6-15.4,11.2l-4.8-0.3c-4.9-0.3-9.6,1.8-12.6,5.6l-3,3.8
		c-4.5,5.6-12.3,7.3-18.7,4l-4.3-2.2c-4.3-2.3-9.5-2.3-13.8,0l-4.3,2.2c-6.4,3.3-14.2,1.6-18.7-4l-3-3.8c-3-3.8-7.8-5.9-12.6-5.6
		l-4.8,0.3c-7.2,0.4-13.6-4.3-15.4-11.2l-1.2-4.6c-1.2-4.7-4.7-8.6-9.3-10.3l-4.5-1.7c-6.7-2.5-10.7-9.4-9.5-16.5l0.8-4.7
		c0.8-4.8-0.8-9.7-4.3-13.2l-3.4-3.4c-5.1-5-6-13-2-19l2.6-4c2.7-4.1,3.2-9.2,1.4-13.8l-1.8-4.5c-2.6-6.7-0.2-14.3,5.9-18.1l4-2.6
		c4.1-2.6,6.7-7.1,6.9-12l0.2-4.8c0.3-7.2,5.7-13.1,12.8-14.2l4.7-0.7c4.8-0.7,9-3.8,11.2-8.1l2.1-4.3c3.2-6.4,10.5-9.7,17.4-7.8
		l4.6,1.3c4.7,1.3,9.8,0.2,13.5-2.9L99,6.9z"/>
</g>
</svg>
