<svg width="20" height="20" viewBox="0 0 20 20" fill="none" xmlns="http://www.w3.org/2000/svg">
<circle cx="10" cy="10" r="9.5" stroke="#EA1D25"/>
<path d="M10.745 12.045L10.94 4.155H8.92996L9.19996 12.045H10.745ZM9.01996 15H10.925V13.005H9.01996V15Z" fill="#EA1D25"/>
</svg>
