<svg width="195" height="193" viewBox="0 0 195 193" fill="none" xmlns="http://www.w3.org/2000/svg">
<path d="M106.72 4.24288L109.52 6.54956C113.42 9.7628 118.642 10.8728 123.512 9.52383L127.009 8.55546C133.695 6.70352 140.756 9.84735 143.854 16.0553L145.473 19.3015C147.73 23.8234 152.049 26.9614 157.047 27.71L160.634 28.2473C167.496 29.275 172.668 35.0191 172.973 41.9503L173.132 45.5746C173.354 50.6233 176.023 55.2468 180.285 57.9634L183.344 59.9136C189.194 63.6432 191.582 70.9943 189.042 77.4503L187.713 80.8261C185.863 85.5286 186.421 90.8381 189.209 95.0531L191.21 98.079C195.037 103.866 194.229 111.553 189.283 116.417L186.696 118.961C183.092 122.504 181.443 127.581 182.275 132.566L182.873 136.144C184.016 142.987 180.151 149.681 173.653 152.113L170.256 153.385C165.523 155.156 161.95 159.123 160.683 164.016L159.774 167.527C158.035 174.244 151.781 178.787 144.856 178.366L141.235 178.145C136.191 177.838 131.314 180.01 128.167 183.964L125.907 186.802C121.587 192.231 114.026 193.838 107.871 190.636L104.653 188.962C100.169 186.63 94.8306 186.63 90.3473 188.962L87.1289 190.636C80.9738 193.838 73.4133 192.231 69.0927 186.802L66.8334 183.964C63.6862 180.01 58.809 177.838 53.7647 178.145L50.1436 178.366C43.2185 178.787 36.9653 174.244 35.2261 167.527L34.3166 164.016C33.0497 159.123 29.4774 155.156 24.7444 153.385L21.3467 152.113C14.849 149.681 10.9843 142.987 12.1272 136.144L12.7248 132.566C13.5573 127.581 11.9075 122.504 8.30419 118.961L5.71746 116.417C0.770566 111.553 -0.0373774 103.866 3.79005 98.079L5.79141 95.0531C8.57933 90.8381 9.13738 85.5286 7.28673 80.8261L5.95821 77.4503C3.41753 70.9943 5.80605 63.6432 11.6562 59.9136L14.7153 57.9634C18.9766 55.2468 21.6459 50.6233 21.868 45.5746L22.0274 41.9503C22.3322 35.0191 27.5042 29.275 34.3655 28.2473L37.9533 27.71C42.9512 26.9614 47.2703 23.8234 49.5267 19.3015L51.1464 16.0553C54.2441 9.84735 61.3052 6.70352 67.9914 8.55545L71.4876 9.52383C76.3578 10.8728 81.5799 9.7628 85.4804 6.54956L88.2804 4.24288C93.6353 -0.168446 101.365 -0.168446 106.72 4.24288Z" stroke="black"/>
</svg>
