<svg width="48" height="22" viewBox="0 0 48 22" fill="none" xmlns="http://www.w3.org/2000/svg">
<rect width="48" height="22" rx="11" fill="#BBBBBB"/>
<circle cx="11" cy="11" r="9.5" fill="#F0F0F0" stroke="#BBBBBB"/>
</svg>
