{
  "files": {
    "main.css": "/optimiser/static/css/main.fe15061a.chunk.css",
    "main.js": "/optimiser/static/js/main.ff485a48.chunk.js",
    "main.js.map": "/optimiser/static/js/main.ff485a48.chunk.js.map",
    "runtime-main.js": "/optimiser/static/js/runtime-main.e7013be4.js",
    "runtime-main.js.map": "/optimiser/static/js/runtime-main.e7013be4.js.map",
    "static/js/2.f09338a2.chunk.js": "/optimiser/static/js/2.f09338a2.chunk.js",
    "static/js/2.f09338a2.chunk.js.map": "/optimiser/static/js/2.f09338a2.chunk.js.map",
    "index.html": "/optimiser/index.html",
    "precache-manifest.2c85878d6dede950b0eae74951e7c862.js": "/optimiser/precache-manifest.2c85878d6dede950b0eae74951e7c862.js",
    "service-worker.js": "/optimiser/service-worker.js",
    "static/css/main.fe15061a.chunk.css.map": "/optimiser/static/css/main.fe15061a.chunk.css.map",
    "static/js/2.f09338a2.chunk.js.LICENSE.txt": "/optimiser/static/js/2.f09338a2.chunk.js.LICENSE.txt",
    "static/media/splashHome.svg": "/optimiser/static/media/splashHome.db5abc08.svg"
  },
  "entrypoints": [
    "static/js/runtime-main.e7013be4.js",
    "static/js/2.f09338a2.chunk.js",
    "static/css/main.fe15061a.chunk.css",
    "static/js/main.ff485a48.chunk.js"
  ]
}