<?xml version="1.0" encoding="utf-8"?>
<!-- Generator: Adobe Illustrator 24.2.1, SVG Export Plug-In . SVG Version: 6.00 Build 0)  -->
<svg version="1.1" id="youtube" xmlns="http://www.w3.org/2000/svg" xmlns:xlink="http://www.w3.org/1999/xlink" x="0px" y="0px"
	 viewBox="0 0 56 39" style="enable-background:new 0 0 56 39;" xml:space="preserve">
<path d="M54.7,6.1c-0.6-2.4-2.5-4.3-4.9-4.9C45.4,0,27.9,0,27.9,0S10.8-0.1,6.4,1.1C4,1.7,1.7,3.7,1.1,6.1C-0.1,10.4,0,19.5,0,19.5
	s-0.1,9.1,1.1,13.4c0.6,2.4,3,4.4,5.4,5c4.4,1.2,21.5,1.1,21.5,1.1s17.1,0.1,21.5-1.1c2.4-0.6,4.6-2.6,5.3-5
	c1.2-4.3,1.2-13.4,1.2-13.4S55.8,10.4,54.7,6.1z M22.6,28.2V10.8l13.9,8.7L22.6,28.2z"/>
</svg>
