<svg width="19" height="14" viewBox="0 0 19 14" fill="none" xmlns="http://www.w3.org/2000/svg">
<path d="M6 1H18V13H6L1 7L6 1Z" stroke="black"/>
<path d="M8.5 4L14.5 10" stroke="black"/>
<path d="M14.5 4L8.5 10" stroke="black"/>
</svg>
