<svg width="36" height="36" viewBox="0 0 36 36" fill="none" xmlns="http://www.w3.org/2000/svg">
<circle cx="18" cy="18" r="18" fill="#F0F0F0"/>
<line x1="10" y1="18" x2="26" y2="18" stroke="black" stroke-width="2" stroke-linecap="square" stroke-linejoin="round"/>
<line x1="18" y1="10" x2="18" y2="26" stroke="black" stroke-width="2" stroke-linecap="square" stroke-linejoin="round"/>
</svg>
