<?xml version="1.0" encoding="utf-8"?>
<!-- Generator: Adobe Illustrator 24.2.1, SVG Export Plug-In . SVG Version: 6.00 Build 0)  -->
<svg version="1.1" id="icon-tv" xmlns="http://www.w3.org/2000/svg" xmlns:xlink="http://www.w3.org/1999/xlink" x="0px" y="0px"
	 viewBox="0 0 30 30" style="enable-background:new 0 0 30 30;" xml:space="preserve">
<style type="text/css">
	.st0{stroke:#FFFFFF;}
	.st1{fill-rule:evenodd;clip-rule:evenodd;fill:#110000;}
	.st2{fill-rule:evenodd;clip-rule:evenodd;fill:#FFFFFF;filter:url(#Adobe_OpacityMaskFilter);}
	.st3{mask:url(#path-2-inside-1_1_);fill:#FFFFFF;}
	.st4{fill:none;stroke:#FFFFFF;}
	.st5{fill:#FFFFFF;}
</style>
<path class="st0" d="M2.8,12.5h20.3c0.8,0,1.5,0.7,1.5,1.5v14c0,0.8-0.7,1.5-1.5,1.5H2.8c-0.8,0-1.5-0.7-1.5-1.5V14
	C1.3,13.2,2,12.5,2.8,12.5z"/>
<path class="st1" d="M0.8,12l4-5h0h22.3h2v2l0,0v16l-4.1,5L17,29.5L12.9,25h-8v-8.6L0.8,12z"/>
<defs>
	<filter id="Adobe_OpacityMaskFilter" filterUnits="userSpaceOnUse" x="-0.5" y="6" width="30.7" height="25">
		<feColorMatrix  type="matrix" values="1 0 0 0 0  0 1 0 0 0  0 0 1 0 0  0 0 0 1 0"/>
	</filter>
</defs>
<mask maskUnits="userSpaceOnUse" x="-0.5" y="6" width="30.7" height="25" id="path-2-inside-1_1_">
	<path class="st2" d="M0.8,12l4-5h0h22.3h2v2l0,0v16l-4.1,5L17,29.5L12.9,25h-8v-8.6L0.8,12z"/>
</mask>
<path class="st3" d="M4.9,7V6H4.4L4.1,6.4L4.9,7z M0.8,12l-0.8-0.6L-0.5,12l0.6,0.6L0.8,12z M29.2,7h1V6h-1V7z M29.2,9h-1v0.4
	l0.3,0.3L29.2,9z M29.2,9h1V8.6l-0.3-0.3L29.2,9z M29.2,25l0.8,0.6l0.2-0.3V25H29.2z M25.1,30l-0.1,1l0.5,0l0.3-0.4L25.1,30z
	 M17,29.5l-0.7,0.7l0.3,0.3l0.4,0L17,29.5z M12.9,25l0.7-0.7L13.3,24h-0.4V25z M4.9,25h-1v1h1V25z M4.9,16.4h1V16l-0.3-0.3L4.9,16.4
	z M4.1,6.4l-4,5l1.6,1.3l4-5L4.1,6.4z M4.9,6L4.9,6l0,2h0V6z M4.9,8h22.3V6H4.9V8z M27.1,8h2V6h-2V8z M28.2,7v2h2V7H28.2z M29.9,8.3
	L29.9,8.3l-1.4,1.4l0,0L29.9,8.3z M30.2,25V9h-2v16H30.2z M25.9,30.6l4.1-5l-1.6-1.3l-4.1,5L25.9,30.6z M17,30.5l8.1,0.5l0.1-2
	l-8.1-0.5L17,30.5z M12.1,25.7l4.2,4.5l1.5-1.4l-4.2-4.5L12.1,25.7z M12.9,24h-8v2h8V24z M5.9,25v-8.6h-2V25H5.9z M0.1,12.7l4,4.4
	l1.5-1.4l-4-4.4L0.1,12.7z"/>
<path class="st4" d="M7.9,1L16,9.5L23.1,1"/>
<rect x="1.3" y="12.5" class="st0" width="23.3" height="17"/>
<path class="st0" d="M5.9,15.5H17c0.8,0,1.5,0.7,1.5,1.5v8c0,0.8-0.7,1.5-1.5,1.5H5.9c-0.8,0-1.5-0.7-1.5-1.5v-8
	C4.4,16.2,5,15.5,5.9,15.5z"/>
<ellipse class="st5" cx="21.6" cy="26.5" rx="0.5" ry="0.5"/>
<ellipse class="st5" cx="21.6" cy="24.5" rx="0.5" ry="0.5"/>
<ellipse class="st5" cx="21.6" cy="22.5" rx="0.5" ry="0.5"/>
</svg>
