<svg width="11" height="13" viewBox="0 0 11 13" fill="none" xmlns="http://www.w3.org/2000/svg">
<rect y="5" width="11" height="8" fill="black"/>
<rect x="3" y="1" width="5" height="9" rx="2.5" stroke="black" stroke-width="2"/>
</svg>
