<svg width="21" height="21" viewBox="0 0 21 21" fill="none" xmlns="http://www.w3.org/2000/svg">
<path fill-rule="evenodd" clip-rule="evenodd" d="M1.35953 0.750386C2.20188 -0.0534414 4.74852 -0.187413 4.76811 0.23364C4.7877 0.654693 7.06009 5.36283 7.07968 5.78388C7.09927 6.20493 5.59087 7.64034 5.14031 8.08053C4.68975 8.48244 8.09834 12.1571 8.1571 12.2145C8.23546 12.2719 12.075 15.5255 12.506 15.1045C12.9565 14.6834 14.4649 13.248 14.9155 13.2671C15.3661 13.2863 20.283 15.449 20.7336 15.4681C21.1842 15.4872 21.047 17.8987 20.2047 18.7025C19.4799 19.3915 15.7579 21.8604 9.2933 17.4394C8.58807 17.0566 7.45188 16.1571 5.76718 14.5303C4.06289 12.9035 3.12259 11.8317 2.7308 11.1619C-1.9511 4.98005 0.654307 1.43938 1.35953 0.750386Z" fill="black"/>
</svg>
