<?xml version="1.0" encoding="utf-8"?>
<!-- Generator: Adobe Illustrator 24.2.1, SVG Export Plug-In . SVG Version: 6.00 Build 0)  -->
<svg version="1.1" id="rosette-fish" xmlns="http://www.w3.org/2000/svg" xmlns:xlink="http://www.w3.org/1999/xlink" x="0px"
	 y="0px" viewBox="0 0 143 143" style="enable-background:new 0 0 143 143;" xml:space="preserve">
<style type="text/css">
	.st0{fill:none;stroke:#000000;}
	.st1{fill:#F0F0F0;}
</style>
<path class="st0" d="M52.2,9.4c4.1,1.1,8.4,0.2,11.7-2.5c4.4-3.6,10.8-3.6,15.2,0c3.3,2.7,7.6,3.6,11.7,2.5
	c5.5-1.5,11.3,1.1,13.9,6.2c1.9,3.8,5.5,6.4,9.7,7c5.7,0.8,9.9,5.6,10.2,11.3c0.2,4.2,2.4,8.1,6,10.4c4.8,3.1,6.8,9.1,4.7,14.5
	c-1.5,3.9-1.1,8.4,1.3,11.9c3.2,4.8,2.5,11.1-1.6,15.1c-3,3-4.4,7.2-3.7,11.4c0.9,5.6-2.2,11.2-7.6,13.2c-4,1.5-6.9,4.8-8,8.9
	c-1.4,5.5-6.6,9.3-12.3,8.9c-4.2-0.3-8.3,1.6-10.9,4.9c-3.6,4.5-9.8,5.8-14.9,3.2c-3.8-2-8.2-2-12,0c-5.1,2.6-11.3,1.3-14.9-3.2
	c-2.6-3.3-6.7-5.1-10.9-4.9c-5.7,0.3-10.9-3.4-12.3-8.9c-1.1-4.1-4-7.4-8-8.9c-5.4-2-8.6-7.5-7.6-13.2c0.7-4.2-0.7-8.4-3.7-11.4
	c-4.1-4-4.7-10.4-1.6-15.1c2.3-3.5,2.8-8,1.3-11.9c-2.1-5.3-0.1-11.4,4.7-14.5c3.6-2.3,5.8-6.1,6-10.4c0.3-5.7,4.5-10.5,10.2-11.3
	c4.2-0.6,7.8-3.3,9.7-7C40.8,10.5,46.7,7.9,52.2,9.4z"/>
<path d="M112,61.1c-9.3,1.3-12.1,8.7-15.8,9.6c-0.3,0.1-0.7,0-1.1,0c-1.9-6-7.1-11-14-13.5c3.7-5.7-0.4-7.1-9.8-7.1
	c-10,0-14.6,8.2-14.6,8.2c-0.8,0.4-1.5,0.8-2.2,1.3c0,0-7.5,2-13.9,13.2c-7.6,13.2,3.9,13.6,3.9,13.6s-1.1,0.5-2,2.4
	c-0.6,1.3,7.6,5.3,18,7c3,2.3,6.5,4.5,9.7,5c6.4,1.1,16.1-1,10.6-6c7-2.6,12.3-7.6,14.3-13.7c0.3-0.1,0.7-0.1,1.1,0
	c3.7,0.8,6.5,8.3,15.8,9.6c0,0-6.9-8.9-6.9-14.7C105.1,70.2,112,61.1,112,61.1z"/>
<path class="st1" d="M56.4,75.5c1.2,0,2.2-1,2.2-2.2c0-1.2-1-2.2-2.2-2.2s-2.2,1-2.2,2.2C54.2,74.5,55.2,75.5,56.4,75.5z"/>
<path class="st0" d="M49.9,48.2c0,0.9-0.7,1.7-1.7,1.7c-0.9,0-1.7-0.7-1.7-1.7c0-0.9,0.7-1.7,1.7-1.7C49.1,46.5,49.9,47.2,49.9,48.2
	z"/>
<path class="st0" d="M57.5,25c0,1.4-1.1,2.5-2.5,2.5s-2.5-1.1-2.5-2.5s1.1-2.5,2.5-2.5S57.5,23.6,57.5,25z"/>
</svg>
