<?xml version="1.0" encoding="UTF-8"?>
<svg width="180px" height="131px" viewBox="0 0 180 131" version="1.1" xmlns="http://www.w3.org/2000/svg" xmlns:xlink="http://www.w3.org/1999/xlink">
    <!-- Generator: Sketch 52.6 (67491) - http://www.bohemiancoding.com/sketch -->
    <title>Group</title>
    <desc>Created with Sketch.</desc>
    <g id="Listings" stroke="none" stroke-width="1" fill="none" fill-rule="evenodd">
        <g id="00-Landing-page" transform="translate(-97.000000, -231.000000)">
            <g id="Group" transform="translate(97.000000, 231.000000)">
                <path d="M170.140033,130.998661 L9.85996728,130.998661 C3.55661007,118.702722 0,104.766242 0,89.99908 C0,40.2939606 40.2943725,0 90,0 C139.705627,0 180,40.2939606 180,89.99908 C180,104.766242 176.44339,118.702722 170.140028,130.99867 Z" id="Combined-Shape" fill="#D9F5ED"></path>
                <rect id="Rectangle" fill="#FFFFFF" x="53" y="62" width="72" height="69"></rect>
                <rect id="Rectangle" fill="#02BC83" x="62" y="69" width="23" height="23"></rect>
                <rect id="Rectangle" fill="#188966" x="64" y="71" width="9" height="9"></rect>
                <rect id="Rectangle-Copy-7" fill="#188966" x="64" y="81" width="9" height="9"></rect>
                <rect id="Rectangle-Copy-6" fill="#188966" x="74" y="71" width="9" height="9"></rect>
                <rect id="Rectangle-Copy-8" fill="#188966" x="74" y="81" width="9" height="9"></rect>
                <rect id="Rectangle-Copy-9" fill="#188966" x="61" y="92" width="25" height="1"></rect>
                <rect id="Rectangle-Copy-10" fill="#02BC83" x="61" y="91" width="25" height="1"></rect>
                <rect id="Rectangle-Copy-4" fill="#02BC83" x="62" y="102" width="33" height="23"></rect>
                <rect id="Rectangle-Copy-3" fill="#02BC83" x="95" y="69" width="23" height="23"></rect>
                <rect id="Rectangle-Copy-5" fill="#02BC83" x="101" y="102" width="17" height="29"></rect>
                <rect id="Rectangle" fill="#188966" x="53" y="62" width="72" height="2"></rect>
                <polygon id="Rectangle" fill="#02BC83" transform="translate(89.500000, 48.000000) scale(1, -1) translate(-89.500000, -48.000000) " points="52 34 127 34 117 62 62 62"></polygon>
                <rect id="Rectangle-Copy-11" fill="#188966" x="97" y="71" width="9" height="9"></rect>
                <rect id="Rectangle-Copy-12" fill="#188966" x="97" y="81" width="9" height="9"></rect>
                <rect id="Rectangle-Copy-13" fill="#188966" x="107" y="71" width="9" height="9"></rect>
                <rect id="Rectangle-Copy-14" fill="#188966" x="107" y="81" width="9" height="9"></rect>
                <rect id="Rectangle-Copy-15" fill="#188966" x="94" y="92" width="25" height="1"></rect>
                <rect id="Rectangle-Copy-16" fill="#02BC83" x="94" y="91" width="25" height="1"></rect>
                <rect id="Rectangle-Copy-18" fill="#188966" x="71" y="104" width="15" height="9"></rect>
                <rect id="Rectangle-Copy-20" fill="#188966" x="64" y="104" width="6" height="9"></rect>
                <rect id="Rectangle-Copy-24" fill="#188966" x="87" y="104" width="6" height="9"></rect>
                <rect id="Rectangle-Copy-26" fill="#188966" x="102" y="103" width="15" height="28"></rect>
                <rect id="Rectangle-Copy-19" fill="#188966" x="71" y="114" width="15" height="9"></rect>
                <rect id="Rectangle-Copy-21" fill="#188966" x="64" y="114" width="6" height="9"></rect>
                <rect id="Rectangle-Copy-25" fill="#188966" x="87" y="114" width="6" height="9"></rect>
                <rect id="Rectangle-Copy-22" fill="#188966" x="61" y="125" width="35" height="1"></rect>
                <rect id="Rectangle-Copy-23" fill="#02BC83" x="61" y="124" width="35" height="1"></rect>
                <rect id="Rectangle-Copy-26" fill="#188966" x="104" y="105" width="4" height="9"></rect>
                <rect id="Rectangle-Copy-29" fill="#188966" x="111" y="105" width="4" height="9"></rect>
                <rect id="Rectangle-Copy-31" fill="#188966" x="104" y="120" width="4" height="9"></rect>
                <circle id="Oval" fill="#02BC83" cx="109.5" cy="116.5" r="1.5"></circle>
                <rect id="Rectangle-Copy-5" fill="#02BC83" x="106" y="120" width="7" height="1"></rect>
            </g>
        </g>
    </g>
</svg>