<?xml version="1.0" encoding="utf-8"?>
<!-- Generator: Adobe Illustrator 24.2.1, SVG Export Plug-In . SVG Version: 6.00 Build 0)  -->
<svg version="1.1" id="linkedin" xmlns="http://www.w3.org/2000/svg" xmlns:xlink="http://www.w3.org/1999/xlink" x="0px" y="0px"
	 viewBox="0 0 39 39" style="enable-background:new 0 0 39 39;" xml:space="preserve">
<path d="M36.1,0H2.9C1.3,0,0,1.2,0,2.8v33.4C0,37.7,1.3,39,2.9,39h33.2c1.6,0,2.9-1.3,2.9-2.8V2.8C39,1.2,37.7,0,36.1,0z M11.6,33.2
	H5.8V14.6h5.8V33.2z M8.7,12.1c-1.8,0-3.4-1.5-3.4-3.4c0-1.8,1.5-3.4,3.4-3.4c1.8,0,3.4,1.5,3.4,3.4C12,10.6,10.5,12.1,8.7,12.1z
	 M33.2,33.2h-5.8v-9c0-2.2,0-4.9-3-4.9c-3,0-3.5,2.4-3.5,4.8v9.2h-5.8V14.6h5.6v2.5h0.1c0.8-1.5,2.7-3,5.5-3c5.9,0,6.9,3.8,6.9,8.9
	V33.2L33.2,33.2z"/>
</svg>
