{
  "files": {
    "main.css": "/valuation/static/css/main.f232842b.chunk.css",
    "main.js": "/valuation/static/js/main.2f4f8c37.chunk.js",
    "main.js.map": "/valuation/static/js/main.2f4f8c37.chunk.js.map",
    "runtime-main.js": "/valuation/static/js/runtime-main.77fd034a.js",
    "runtime-main.js.map": "/valuation/static/js/runtime-main.77fd034a.js.map",
    "static/js/2.0c20117d.chunk.js": "/valuation/static/js/2.0c20117d.chunk.js",
    "static/js/2.0c20117d.chunk.js.map": "/valuation/static/js/2.0c20117d.chunk.js.map",
    "index.html": "/valuation/index.html",
    "precache-manifest.4ac35823671b3cf62cca7f5e9b686468.js": "/valuation/precache-manifest.4ac35823671b3cf62cca7f5e9b686468.js",
    "service-worker.js": "/valuation/service-worker.js",
    "static/css/main.f232842b.chunk.css.map": "/valuation/static/css/main.f232842b.chunk.css.map",
    "static/js/2.0c20117d.chunk.js.LICENSE.txt": "/valuation/static/js/2.0c20117d.chunk.js.LICENSE.txt",
    "static/media/rosette-green.svg": "/valuation/static/media/rosette-green.43c58f35.svg",
    "static/media/splashHome.svg": "/valuation/static/media/splashHome.db5abc08.svg"
  },
  "entrypoints": [
    "static/js/runtime-main.77fd034a.js",
    "static/js/2.0c20117d.chunk.js",
    "static/css/main.f232842b.chunk.css",
    "static/js/main.2f4f8c37.chunk.js"
  ]
}