<svg width="48" height="22" viewBox="0 0 48 22" fill="none" xmlns="http://www.w3.org/2000/svg">
<rect x="0.5" y="0.5" width="47" height="21" rx="10.5" fill="black" stroke="black"/>
<circle cx="37" cy="11" r="9.5" fill="white" stroke="black"/>
</svg>
