<?xml version="1.0" encoding="utf-8"?>
<!-- Generator: Adobe Illustrator 24.2.1, SVG Export Plug-In . SVG Version: 6.00 Build 0)  -->
<svg version="1.1" id="free" xmlns="http://www.w3.org/2000/svg" xmlns:xlink="http://www.w3.org/1999/xlink" x="0px" y="0px"
	 viewBox="0 0 72 74" style="enable-background:new 0 0 72 74;" xml:space="preserve">
<style type="text/css">
	.st0{fill:#FFFFFF;}
</style>
<path class="st0" d="M36,0l6.4,8.7L52,3.7l2,10.7l10.8-0.4l-2.8,10.5l9.9,4.3l-7.1,8.2l7.1,8.2l-9.9,4.3L64.9,60L54,59.5l-2,10.7
	l-9.6-5.1L36,73.9l-6.4-8.7L20,70.2l-2-10.7L7.1,60l2.8-10.5L0,45.2l7.1-8.2L0,28.7l9.9-4.3L7.1,13.9L18,14.3l2-10.7l9.6,5.1L36,0z"
	/>
<path d="M17.2,27.1L17.1,38l4.8-0.6v3.3l-4.8,0.6L17,55.1l-3.9,0.5l0.3-31.2l8.7-1.2l0,3.3L17.2,27.1z"/>
<path d="M36.3,27.2l-0.1,9.7c0,2.3-0.7,4-2.1,5l2.5,10.5l-3.5,0.5L31,43.3l-2.6,0.3l-0.1,9.9l-3.8,0.5l0.3-31.2l6.5-0.9
	C35.6,21.4,36.4,23.1,36.3,27.2z M30.4,25.4l-1.9,0.2l-0.1,15l1.8-0.2c1.7-0.2,2.3-0.8,2.3-2.9l0.1-9.8
	C32.6,25.6,32.1,25.1,30.4,25.4z"/>
<path d="M42.7,23.7l-0.1,10.7l4.8-0.6l0,3.3l-4.8,0.6l-0.1,10.7l4.9-0.6l0,3.3l-8.7,1.2L38.9,21l8.7-1.2l0,3.3L42.7,23.7z"/>
<path d="M54,22.2l-0.1,10.7l4.8-0.6l0,3.3l-4.8,0.6l-0.1,10.7l4.9-0.6l0,3.3l-8.7,1.2l0.3-31.2l8.7-1.2l0,3.3L54,22.2z"/>
</svg>
